D .read /Users/cybersaur/Desktop/Projects/cmu-95797/nyc_transit/target/compiled/nyc_transit/analyses/yellow_taxi_fare_comparison.sql
100% ▕████████████████████████████████████████████████████████████▏
┌─────────────┬────────────────────┬───┬─────────────────────┬──────────────────────┐
│ fare_amount │  overall_avg_fare  │ … │    borough_diff     │      zone_diff       │
│   double    │       double       │   │       double        │        double        │
├─────────────┼────────────────────┼───┼─────────────────────┼──────────────────────┤
│        21.5 │ 13.032998078351495 │ … │ -2.3105362223987846 │    2.990073977371722 │
│       22.54 │ 13.032998078351495 │ … │ -1.2705362223987855 │    4.030073977371721 │
│        12.5 │ 13.032998078351495 │ … │ -11.310536222398785 │   -6.009926022628278 │
│        23.0 │ 13.032998078351495 │ … │ -0.8105362223987846 │    4.490073977371722 │
│         9.5 │ 13.032998078351495 │ … │ -14.310536222398785 │   -9.009926022628278 │
│        10.5 │ 13.032998078351495 │ … │ -13.310536222398785 │   -8.009926022628278 │
│        35.5 │ 13.032998078351495 │ … │  11.689463777601215 │   16.990073977371722 │
│        14.2 │ 13.032998078351495 │ … │  -9.610536222398785 │   -4.309926022628279 │
│        11.5 │ 13.032998078351495 │ … │ -12.310536222398785 │   -7.009926022628278 │
│         6.0 │ 13.032998078351495 │ … │ -17.810536222398785 │  -12.509926022628278 │
│         8.0 │ 13.032998078351495 │ … │ -15.810536222398785 │  -10.509926022628278 │
│         8.0 │ 13.032998078351495 │ … │ -15.810536222398785 │  -10.509926022628278 │
│        12.5 │ 13.032998078351495 │ … │ -11.310536222398785 │   -6.009926022628278 │
│        20.5 │ 13.032998078351495 │ … │ -3.3105362223987846 │    1.990073977371722 │
│        13.5 │ 13.032998078351495 │ … │ -10.310536222398785 │   -5.009926022628278 │
│         5.0 │ 13.032998078351495 │ … │ -18.810536222398785 │  -13.509926022628278 │
│        29.0 │ 13.032998078351495 │ … │   5.189463777601215 │   10.490073977371722 │
│        14.5 │ 13.032998078351495 │ … │  -9.310536222398785 │   -4.009926022628278 │
│         6.0 │ 13.032998078351495 │ … │ -17.810536222398785 │  -12.509926022628278 │
│        26.0 │ 13.032998078351495 │ … │  2.1894637776012154 │    7.490073977371722 │
│          ·  │          ·         │ · │           ·         │            ·         │
│          ·  │          ·         │ · │           ·         │            ·         │
│          ·  │          ·         │ · │           ·         │            ·         │
│         6.5 │ 13.032998078351495 │ … │  -4.572352003718642 │   -4.434197072237653 │
│         6.0 │ 13.032998078351495 │ … │  -5.072352003718642 │   -4.934197072237653 │
│         4.0 │ 13.032998078351495 │ … │  -7.072352003718642 │   -6.934197072237653 │
│        10.5 │ 13.032998078351495 │ … │ -0.5723520037186418 │ -0.43419707223765336 │
│         9.0 │ 13.032998078351495 │ … │  -2.072352003718642 │  -1.9341970722376534 │
│        12.0 │ 13.032998078351495 │ … │  0.9276479962813582 │   1.0658029277623466 │
│        10.0 │ 13.032998078351495 │ … │ -1.0723520037186418 │  -0.9341970722376534 │
│         5.0 │ 13.032998078351495 │ … │  -6.072352003718642 │   -5.934197072237653 │
│         5.0 │ 13.032998078351495 │ … │  -6.072352003718642 │   -5.934197072237653 │
│        10.5 │ 13.032998078351495 │ … │ -0.5723520037186418 │ -0.43419707223765336 │
│         5.5 │ 13.032998078351495 │ … │  -5.572352003718642 │   -5.434197072237653 │
│        17.0 │ 13.032998078351495 │ … │   5.927647996281358 │    6.065802927762347 │
│        15.5 │ 13.032998078351495 │ … │   4.427647996281358 │    4.565802927762347 │
│        18.0 │ 13.032998078351495 │ … │   6.927647996281358 │    7.065802927762347 │
│        15.5 │ 13.032998078351495 │ … │   4.427647996281358 │    4.565802927762347 │
│         6.5 │ 13.032998078351495 │ … │  -4.572352003718642 │   -4.434197072237653 │
│         5.5 │ 13.032998078351495 │ … │  -5.572352003718642 │   -5.434197072237653 │
│         8.0 │ 13.032998078351495 │ … │  -3.072352003718642 │  -2.9341970722376534 │
│        13.0 │ 13.032998078351495 │ … │  1.9276479962813582 │   2.0658029277623466 │
│         4.5 │ 13.032998078351495 │ … │  -6.572352003718642 │   -6.434197072237653 │
├─────────────┴────────────────────┴───┴─────────────────────┴──────────────────────┤
│ 5453948 rows (40 shown)                                       7 columns (4 shown) │
└───────────────────────────────────────────────────────────────────────────────────┘
